<?xml version="1.0" encoding="utf-8"?>
<!-- Generator: Adobe Illustrator 19.2.1, SVG Export Plug-In . SVG Version: 6.00 Build 0)  -->
<!DOCTYPE svg PUBLIC "-//W3C//DTD SVG 1.1//EN" "http://www.w3.org/Graphics/SVG/1.1/DTD/svg11.dtd">
<svg version="1.1" id="Layer_1" xmlns="http://www.w3.org/2000/svg" xmlns:xlink="http://www.w3.org/1999/xlink" x="0px" y="0px"
	 width="288px" height="62px" viewBox="0 0 288 62" style="enable-background:new 0 0 288 62;" xml:space="preserve">
<style type="text/css">
	.st0{fill:#FFFFFE;}
</style>
<g>
	<title>logo</title>
	<g>
		<polygon class="st0" points="79.4,32.2 73.7,32.2 67.5,42.9 64.6,42.9 64.6,32.2 59.3,32.2 59.3,58.8 64.6,58.8 64.6,47.4 
			67.5,47.4 73.9,58.7 73.9,58.8 79.9,58.8 71.9,44.9 		"/>
		<rect x="83.1" y="32.2" class="st0" width="5.2" height="26.6"/>
		<path class="st0" d="M103.6,32.2h-9.2v26.6h9.2c8.4,0,13.6-5.1,13.6-13.3C117.2,37.3,112,32.2,103.6,32.2z M99.7,36.8h3.7
			c5.3,0,8.4,3.3,8.4,8.7c0,5.6-3.1,8.8-8.4,8.8h-3.7V36.8z"/>
		<path class="st0" d="M138.3,47.5c0,0.9,0.1,2,0.2,2.9c-0.4-0.9-1.1-2.1-1.7-3l-10-15.2h-5.1v26.6h5.2V43.5c0-0.9-0.1-2-0.2-2.9
			c0.4,0.9,1.1,2.1,1.7,3l9.9,15.1l0.1,0.1h5.1V32.2h-5.2V47.5z"/>
		<polygon class="st0" points="154.9,47.7 163.7,47.7 163.7,43.1 154.9,43.1 154.9,36.8 165.8,36.8 165.8,32.2 149.7,32.2 
			149.7,58.8 166.4,58.8 166.4,54.3 154.9,54.3 		"/>
		<path class="st0" d="M180.3,40c-0.6,1.1-1.1,2.4-1.4,3.1c0-0.1,0-0.1-0.1-0.2c-0.3-0.7-0.8-1.9-1.3-2.9l-4.2-7.8h-5.9l8.9,15.5
			v11.1h5.2V47.7l8.9-15.5h-5.9L180.3,40z"/>
		<path class="st0" d="M213,51.2c0,0-3,3.2-7.4,3.2c-5.6,0-8.5-4.6-8.5-9.1c0-5.1,3.5-8.7,8.5-8.7c4,0,6.9,2.7,7,2.7l0.2,0.2
			l2.5-3.9l-0.1-0.1c-0.1-0.1-3.4-3.6-9.8-3.6c-7.8,0-13.7,5.9-13.7,13.6c0,8,5.8,13.9,13.7,13.9c6.7,0,10.4-4.3,10.5-4.3l0.1-0.1
			l-2.8-3.8L213,51.2z"/>
		<path class="st0" d="M226.7,32.2l-9.3,26.3l-0.1,0.3h5.4l2.2-6.7h8.8l2.2,6.7h5.4L232,32.2H226.7z M229.4,37.9
			c0.2,0.9,0.5,2.3,0.8,3.2l2.2,6.7h-6.2l2.2-6.7C228.8,40.2,229.2,38.8,229.4,37.9z"/>
		<path class="st0" d="M259.2,47.6c2.6-1.2,4.3-4,4.3-7.3c0-3.4-1.6-6.1-4.4-7.4c-1.2-0.6-2.6-0.8-5.4-0.8h-8.7v26.6h5.2v-9.8h4.2
			l5.2,9.8h5.9L260,48.7C259.6,48.2,259.4,47.8,259.2,47.6z M250.3,36.8h3.4c3.2,0,4.5,1.1,4.5,3.8c0,2.4-1.4,3.9-3.9,3.9h-4V36.8z"
			/>
		<polygon class="st0" points="274.5,54.3 274.5,47.7 283.3,47.7 283.3,43.1 274.5,43.1 274.5,36.8 285.4,36.8 285.4,32.2 
			269.3,32.2 269.3,58.8 286,58.8 286,54.3 		"/>
	</g>
	<path class="st0" d="M21.9,22.7l-17.8,0c-1.4,3.4-2.2,7-2.4,10.8l31,0l0-31.3c-3.8,0.2-7.5,1.1-10.8,2.5V22.7z"/>
	<path class="st0" d="M1.9,39.5c0.5,3.9,1.6,7.5,3.3,10.8l16.7,0v8.3l10.8,0V39.5L1.9,39.5z"/>
	<path class="st0" d="M38,2.2l0,56.4h10.8l0-53.9C45.5,3.3,41.8,2.4,38,2.2z"/>
	<g>
		<path class="st0" d="M60.1,22.6h2.2V9.5h-2.2V6.9h8.7C70,6.9,71,7,71.9,7.4c2,0.8,3.3,2.8,3.3,5.4c0,2.6-1.3,4.8-3.5,5.5
			c-0.8,0.3-1.8,0.4-2.8,0.4h-3.3v4h2.2v2.5h-7.8V22.6z M68.5,16c0.7,0,1.4-0.1,1.8-0.4c1-0.5,1.5-1.5,1.5-2.8
			c0-1.3-0.5-2.2-1.3-2.7c-0.5-0.3-1.1-0.4-2-0.4h-2.8V16H68.5z"/>
		<path class="st0" d="M79.4,22.6h2.2V9.5h-2.2V6.9h8c1.3,0,2.4,0.1,3.5,0.4c2.1,0.7,3.4,2.3,3.4,4.9c0,2.6-1.3,4.3-3.4,5.1v0.1
			l0.3,0.2c0.2,0.2,0.4,0.4,0.6,0.7l2.1,3.8c0.3,0.5,0.6,0.6,1.2,0.6h0.6v2.5h-2.1c-1.5,0-2-0.3-2.5-1.4l-2.6-4.7
			c-0.4-0.7-0.7-0.9-1.8-0.9h-1.7v4.5H87v2.5h-7.7V22.6z M88,15.5c1.8,0,2.9-1.1,2.9-3c0-1.2-0.4-2.1-1.4-2.5
			c-0.5-0.2-1.2-0.3-2.1-0.3h-2.5v5.9H88z"/>
		<path class="st0" d="M99,22.6h1.7l5.5-15.7h3.8l5.5,15.7h1.7v2.5h-6.9v-2.5h1.8l-1.1-3.4h-5.7l-1.1,3.4h1.8v2.5H99V22.6z
			 M110.2,16.6l-1.7-5.2l-0.3-1.1c0-0.2-0.1-0.3-0.1-0.5h-0.1l-0.1,0.5c-0.1,0.3-0.1,0.6-0.3,1.1l-1.7,5.2H110.2z"/>
		<path class="st0" d="M129.8,6.6c2.2,0,7.1,0.8,7.1,3.6v2.5h-3.1v-1.4c0-1.4-2.4-1.8-3.9-1.8c-3.5,0-6.1,2.5-6.1,6.3
			c0,4.1,2.7,6.8,6.3,6.8c1.1,0,4-0.4,4-1.8v-1.4h3.1v2.5c0,2.7-4.7,3.6-7.2,3.6c-5.5,0-9.5-4.2-9.5-9.5
			C120.5,10.6,124.6,6.6,129.8,6.6z"/>
		<path class="st0" d="M145.5,22.6h2.2v-13h-3.4v2.7h-2.8V6.9h16v5.4h-2.8V9.6H151v13h2.2v2.5h-7.8V22.6z"/>
		<path class="st0" d="M161.6,22.6h2.2V9.5h-2.2V6.9h7.8v2.5h-2.2v13.2h2.2v2.5h-7.8V22.6z"/>
		<path class="st0" d="M183.4,6.6c2.2,0,7.1,0.8,7.1,3.6v2.5h-3.1v-1.4c0-1.4-2.4-1.8-3.9-1.8c-3.5,0-6.1,2.5-6.1,6.3
			c0,4.1,2.7,6.8,6.3,6.8c1.1,0,4-0.4,4-1.8v-1.4h3.1v2.5c0,2.7-4.7,3.6-7.2,3.6c-5.5,0-9.5-4.2-9.5-9.5
			C174,10.6,178.1,6.6,183.4,6.6z"/>
		<path class="st0" d="M195.5,22.6h2.2V9.5h-2.2V6.9H209v4.7h-2.9v-2H201v5h6v2.7h-6v5.1h5.5v-2.1h2.9v4.7h-13.9V22.6z"/>
	</g>
</g>
</svg>
