<?xml version="1.0" encoding="utf-8"?>
<!-- Generator: Adobe Illustrator 19.2.1, SVG Export Plug-In . SVG Version: 6.00 Build 0)  -->
<!DOCTYPE svg PUBLIC "-//W3C//DTD SVG 1.1//EN" "http://www.w3.org/Graphics/SVG/1.1/DTD/svg11.dtd">
<svg version="1.1" id="Layer_1" xmlns="http://www.w3.org/2000/svg" xmlns:xlink="http://www.w3.org/1999/xlink" x="0px" y="0px"
	 width="487.7px" height="487.7px" viewBox="0 0 487.7 487.7" style="enable-background:new 0 0 487.7 487.7;" xml:space="preserve"
	>
<style type="text/css">
	.st0{fill:#1E4495;}
</style>
<title>service-logo-color</title>
<g>
	<polygon class="st0" points="244.6,99.5 6.7,58.6 56.4,138.6 244.6,179.7 432.6,138.6 482.6,58.6 244.6,99.5 	"/>
	<polygon class="st0" points="244.6,430 295.8,348.1 244.6,362 193.5,348.1 244.6,430 	"/>
	<polygon class="st0" points="100.1,211.4 244.6,241.9 389.2,211.4 343.4,284.6 244.6,309.9 145.7,284.6 100.1,211.4 	"/>
</g>
</svg>
