<?xml version="1.0" encoding="utf-8"?>
<!-- Generator: Adobe Illustrator 19.2.1, SVG Export Plug-In . SVG Version: 6.00 Build 0)  -->
<!DOCTYPE svg PUBLIC "-//W3C//DTD SVG 1.1//EN" "http://www.w3.org/Graphics/SVG/1.1/DTD/svg11.dtd">
<svg version="1.1" id="Layer_1" xmlns="http://www.w3.org/2000/svg" xmlns:xlink="http://www.w3.org/1999/xlink" x="0px" y="0px"
	 width="288px" height="66.8px" viewBox="0 0 288 66.8" style="enable-background:new 0 0 288 66.8;" xml:space="preserve">
<style type="text/css">
	.st0{fill:#FFFFFF;}
</style>
<title>logo</title>
<g>
	<g>
		<polygon class="st0" points="39.4,8.8 0,2 8.2,15.3 39.4,22.1 70.6,15.3 78.8,2 39.4,8.8 		"/>
		<polygon class="st0" points="39.4,63.5 47.9,49.9 39.4,52.3 31,49.9 39.4,63.5 		"/>
		<polygon class="st0" points="15.5,27.3 39.4,32.4 63.4,27.3 55.8,39.4 39.4,43.6 23,39.4 15.5,27.3 		"/>
	</g>
	<g>
		<polygon class="st0" points="273.3,61.3 287.7,61.3 287.7,57.1 278.1,57.1 278.1,53.4 284,53.4 284,49.2 278.1,49.2 278.1,46.5 
			287,46.5 287,42.3 273.3,42.3 273.3,61.3 273.3,61.3 		"/>
		<polygon class="st0" points="107.5,61.3 107.5,51.6 102.8,61.8 98,51.6 98,61.3 93.5,61.3 93.5,42.3 97.9,42.3 102.8,53 
			107.6,42.3 112.1,42.3 112.1,61.3 107.5,61.3 107.5,61.3 		"/>
		<path class="st0" d="M139,46.5h-1.5V57h1.4c3.5,0,5-1.6,5-5.3C143.8,48.2,142.5,46.5,139,46.5L139,46.5z M138.6,61.3h-6V42.3h6.4
			c5.8,0,9.6,2.4,9.6,9.4C148.7,58.7,144.7,61.3,138.6,61.3L138.6,61.3z"/>
		<polygon class="st0" points="151.4,61.3 156.2,61.3 156.2,42.3 151.4,42.3 151.4,61.3 151.4,61.3 		"/>
		<path class="st0" d="M170.5,48.9l4.4-1.8c-1.3-3.2-3.2-5.1-7.5-5.1c-5.1,0-8.6,3.8-8.6,9.8c0,5.7,3.1,9.8,8.5,9.8
			c4.1,0,6.3-2.1,7.6-4.7l-4-2.2c-1,1.8-1.8,2.6-3.5,2.6c-2.5,0-3.6-2.4-3.6-5.5c0-3.2,1.2-5.5,3.6-5.5
			C169.1,46.3,169.8,47.3,170.5,48.9L170.5,48.9L170.5,48.9z"/>
		<path class="st0" d="M182.4,53.7h3.8l-1.9-6.1L182.4,53.7L182.4,53.7z M188.6,61.3l-1.1-3.6h-6.3l-1.1,3.6H175l7-18.9h4.8l7,18.9
			H188.6L188.6,61.3z"/>
		<polygon class="st0" points="195.6,61.3 209.1,61.3 209.1,57 200.4,57 200.4,42.3 195.6,42.3 195.6,61.3 195.6,61.3 		"/>
		<path class="st0" d="M229.7,48.9l4.4-1.8c-1.3-3.2-3.2-5.1-7.5-5.1c-5.1,0-8.6,3.8-8.6,9.8c0,5.7,3.1,9.8,8.5,9.8
			c4.1,0,6.3-2.1,7.6-4.7l-4-2.2c-1,1.8-1.8,2.6-3.5,2.6c-2.5,0-3.6-2.4-3.6-5.5c0-3.2,1.2-5.5,3.6-5.5
			C228.3,46.3,229,47.3,229.7,48.9L229.7,48.9L229.7,48.9z"/>
		<path class="st0" d="M241.6,53.7h3.8l-1.9-6.1L241.6,53.7L241.6,53.7z M247.8,61.3l-1.1-3.6h-6.3l-1.1,3.6h-5.1l7-18.9h4.8l7,18.9
			H247.8L247.8,61.3z"/>
		<path class="st0" d="M263.3,46.4h-3.8v4.4h3.7c1.7,0,2.5-0.8,2.5-2.2C265.7,47.2,264.9,46.4,263.3,46.4L263.3,46.4z M265.4,61.3
			l-3.2-6.5h-2.7v6.5h-4.7V42.3h8.6c4.1,0,7.1,1.8,7.1,6.1c0,2.8-1.3,4.6-3.5,5.5l3.7,7.3H265.4L265.4,61.3z"/>
		<polygon class="st0" points="115.8,61.3 130.1,61.3 130.1,57.1 120.5,57.1 120.5,53.4 126.5,53.4 126.5,49.2 120.5,49.2 
			120.5,46.5 129.5,46.5 129.5,42.3 115.8,42.3 115.8,61.3 115.8,61.3 		"/>
		<path class="st0" d="M231.3,33.1c4.8,0,7.7-2,7.7-6.1c0-3.7-2.5-5.1-6.7-6c-2.6-0.6-3.3-1-3.3-1.8c0-0.7,0.5-1.3,2.2-1.3
			c1.9,0,3.5,0.6,5,1.8l2.6-3.6c-1.9-1.6-4.2-2.5-7.3-2.5c-4.3,0-7.2,2.3-7.2,5.9c0,3.8,2.3,5,6.5,5.9c2.9,0.7,3.6,1.1,3.6,2
			c0,1.1-0.8,1.5-2.7,1.5c-1.8,0-4-0.8-5.4-1.9l-2.6,3.5C225.3,32,228.2,33.1,231.3,33.1L231.3,33.1L231.3,33.1z"/>
		<polygon class="st0" points="98.2,18.1 98.2,21 104.9,21 104.9,25.2 98.2,25.2 98.2,32.8 93.5,32.8 93.5,13.9 107.6,13.9 
			107.6,18.1 98.2,18.1 98.2,18.1 		"/>
		<path class="st0" d="M118,17.9h-3.8v4.4h3.7c1.7,0,2.5-0.8,2.5-2.3C120.4,18.7,119.6,17.9,118,17.9L118,17.9z M120.1,32.8
			l-3.2-6.5h-2.7v6.5h-4.7v-19h8.6c4.1,0,7.1,1.8,7.1,6.1c0,2.8-1.3,4.6-3.5,5.6l3.7,7.3H120.1L120.1,32.8z"/>
		<polygon class="st0" points="127.9,32.8 142.3,32.8 142.3,28.7 132.7,28.7 132.7,24.9 138.6,24.9 138.6,20.8 132.7,20.8 132.7,18 
			141.6,18 141.6,13.9 127.9,13.9 127.9,32.8 127.9,32.8 		"/>
		<path class="st0" d="M151,33.1c4.8,0,7.7-2,7.7-6.1c0-3.7-2.5-5.1-6.7-6c-2.6-0.6-3.3-1-3.3-1.8c0-0.7,0.5-1.3,2.2-1.3
			c1.9,0,3.5,0.6,5,1.8l2.6-3.6c-1.9-1.6-4.2-2.5-7.3-2.5c-4.3,0-7.2,2.3-7.2,5.9c0,3.8,2.3,5,6.5,5.9c2.9,0.7,3.6,1.1,3.6,2
			c0,1.1-0.8,1.5-2.7,1.5c-1.8,0-4-0.8-5.4-1.9l-2.6,3.5C145,32,147.9,33.1,151,33.1L151,33.1L151,33.1z"/>
		<polygon class="st0" points="161.3,32.8 175.6,32.8 175.6,28.7 166,28.7 166,24.9 172,24.9 172,20.8 166,20.8 166,18 175,18 
			175,13.9 161.3,13.9 161.3,32.8 161.3,32.8 		"/>
		<polygon class="st0" points="190.2,32.8 194.2,32.8 194.2,13.9 189.6,13.9 189.6,24.2 182.2,13.9 177.9,13.9 177.9,32.8 
			182.5,32.8 182.5,22 190.2,32.8 190.2,32.8 		"/>
		<polygon class="st0" points="197.6,32.8 202.5,32.8 202.5,13.9 197.6,13.9 197.6,32.8 197.6,32.8 		"/>
		<path class="st0" d="M213.7,33.1c4.8,0,8.1-2.7,8.1-8.5V13.9H217v10.8c0,2.6-1.1,4.1-3.3,4.1c-2.2,0-3.3-1.6-3.3-4.1V13.9h-4.9
			v10.8C205.6,30.5,209,33.1,213.7,33.1L213.7,33.1L213.7,33.1z"/>
	</g>
</g>
</svg>
