<?xml version="1.0" encoding="utf-8"?>
<!-- Generator: Adobe Illustrator 19.2.1, SVG Export Plug-In . SVG Version: 6.00 Build 0)  -->
<!DOCTYPE svg PUBLIC "-//W3C//DTD SVG 1.1//EN" "http://www.w3.org/Graphics/SVG/1.1/DTD/svg11.dtd">
<svg version="1.1" id="Layer_1" xmlns="http://www.w3.org/2000/svg" xmlns:xlink="http://www.w3.org/1999/xlink" x="0px" y="0px"
	 width="100px" height="100px" viewBox="0 0 100 100" style="enable-background:new 0 0 100 100;" xml:space="preserve">
<style type="text/css">
	.st0{display:none;fill:#0063A7;}
	.st1{display:none;}
	.st2{display:inline;fill:#0063A7;}
	.st3{display:inline;}
	.st4{fill:#0063A7;}
</style>
<path class="st0" d="M87.8,41.5c0-6.1-5-11.1-11.1-11.1s-11.1,5-11.1,11.1c0,5,3.4,9.2,8,10.6v19c0,11.9-9,17.3-17.3,17.3
	S39,83,39,71.1v-5c10.6-1.3,20.4-9.3,20.4-23.3V13.2c0-0.2,0-0.4-0.1-0.6c-0.3-4.1-3.7-7.3-7.9-7.3c-4.4,0-8,3.6-8,8
	c0,4.4,3.6,8,8,8c0.6,0,1.2-0.1,1.7-0.2v21.8c0,11.9-9,17.3-17.3,17.3s-17.3-5.4-17.3-17.3V21.1c0.6,0.1,1.1,0.2,1.7,0.2
	c4.4,0,8-3.6,8-8s-3.6-8-8-8c-4.1,0-7.5,3.1-7.9,7.1c-0.1,0.2-0.1,0.5-0.1,0.7v29.6c0,7.2,2.6,13.3,7.4,17.7c3.5,3.1,8.1,5.1,13,5.7
	v5c0,7.2,2.6,13.3,7.4,17.7c4.3,3.8,10,5.9,16.1,5.9c11.7,0,23.6-8.1,23.6-23.6v-19C84.4,50.8,87.8,46.5,87.8,41.5z M76.7,46.4
	c-2.7,0-4.8-2.2-4.8-4.8c0-2.7,2.2-4.8,4.8-4.8s4.8,2.2,4.8,4.8C81.5,44.2,79.4,46.4,76.7,46.4z"/>
<g class="st1">
	<path class="st2" d="M57.8,54.4H53c-0.5,0-0.8,0.4-0.8,0.8V60c0,0.5,0.4,0.8,0.8,0.8h4.8c0.5,0,0.8-0.4,0.8-0.8v-4.8
		C58.7,54.8,58.3,54.4,57.8,54.4z"/>
	<path class="st2" d="M47,54.4h-4.8c-0.5,0-0.8,0.4-0.8,0.8V60c0,0.5,0.4,0.8,0.8,0.8H47c0.5,0,0.8-0.4,0.8-0.8v-4.8
		C47.8,54.8,47.4,54.4,47,54.4z"/>
	<path class="st2" d="M36.1,43.6h-4.8c-0.5,0-0.8,0.4-0.8,0.8v4.8c0,0.5,0.4,0.8,0.8,0.8h4.8c0.5,0,0.8-0.4,0.8-0.8v-4.8
		C37,44,36.6,43.6,36.1,43.6z"/>
	<path class="st2" d="M36.1,54.4h-4.8c-0.5,0-0.8,0.4-0.8,0.8V60c0,0.5,0.4,0.8,0.8,0.8h4.8c0.5,0,0.8-0.4,0.8-0.8v-4.8
		C37,54.8,36.6,54.4,36.1,54.4z"/>
	<path class="st2" d="M36.1,65.2h-4.8c-0.5,0-0.8,0.4-0.8,0.8v4.8c0,0.5,0.4,0.8,0.8,0.8h4.8c0.5,0,0.8-0.4,0.8-0.8V66
		C37,65.6,36.6,65.2,36.1,65.2z"/>
	<path class="st2" d="M47,43.6h-4.8c-0.5,0-0.8,0.4-0.8,0.8v4.8c0,0.5,0.4,0.8,0.8,0.8H47c0.5,0,0.8-0.4,0.8-0.8v-4.8
		C47.8,44,47.4,43.6,47,43.6z"/>
	<path class="st2" d="M57.8,43.6H53c-0.5,0-0.8,0.4-0.8,0.8v4.8c0,0.5,0.4,0.8,0.8,0.8h4.8c0.5,0,0.8-0.4,0.8-0.8v-4.8
		C58.7,44,58.3,43.6,57.8,43.6z"/>
	<path class="st2" d="M76.5,28.5H63.9V13.7c0-0.9-0.7-1.6-1.6-1.6H37.7c-0.9,0-1.6,0.7-1.6,1.6v14.8H23.5c-1.3,0-2.4,1.1-2.4,2.4
		v54.6c0,1.3,1.1,2.4,2.4,2.4h53c1.3,0,2.4-1.1,2.4-2.4V30.9C78.9,29.6,77.8,28.5,76.5,28.5z M41.8,17.1h5.7v6.3h4.9v-6.3h5.7v16
		h-5.7v-6h-4.9v6h-5.7V17.1z M74.1,83.1H59.5v-12c0-0.6-0.5-1.1-1.1-1.1H41.6c-0.6,0-1.1,0.5-1.1,1.1v12H25.9V33.3h10.2v3.1
		c0,0.9,0.7,1.6,1.6,1.6h24.6c0.9,0,1.6-0.7,1.6-1.6v-3.1h10.2V83.1z"/>
	<path class="st2" d="M63,44.4v4.8c0,0.5,0.4,0.8,0.8,0.8h4.8c0.5,0,0.8-0.4,0.8-0.8v-4.8c0-0.5-0.4-0.8-0.8-0.8h-4.8
		C63.4,43.6,63,44,63,44.4z"/>
	<path class="st2" d="M68.7,65.2h-4.8c-0.5,0-0.8,0.4-0.8,0.8v4.8c0,0.5,0.4,0.8,0.8,0.8h4.8c0.5,0,0.8-0.4,0.8-0.8V66
		C69.5,65.6,69.1,65.2,68.7,65.2z"/>
	<path class="st2" d="M68.7,54.4h-4.8c-0.5,0-0.8,0.4-0.8,0.8V60c0,0.5,0.4,0.8,0.8,0.8h4.8c0.5,0,0.8-0.4,0.8-0.8v-4.8
		C69.5,54.8,69.1,54.4,68.7,54.4z"/>
</g>
<g class="st1">
	<g class="st3">
		<circle class="st4" cx="50" cy="32.4" r="16.9"/>
	</g>
	<g class="st3">
		<path class="st4" d="M78.9,71.8l-1-10.5c-0.7-6.9-6.9-12.5-13.8-12.5h-0.8v10.6c3.6,0.6,6.8,3.4,6.8,8.2v6.9
			c0,0.8-0.7,1.5-1.5,1.5S67,75.3,67,74.5v-6.9c0-3.6-2.6-5.3-5.3-5.3c0,0,0,0,0,0c0,0,0,0,0,0c-2.6,0-5.3,1.6-5.3,5.3v6.9
			c0,0.8-0.7,1.5-1.5,1.5c-0.8,0-1.5-0.7-1.5-1.5v-6.9c0-4.8,3.2-7.6,6.8-8.2V49.1c-3,1.8-6.4,2.9-10.2,2.9c-3.8,0-7.3-1.1-10.3-3
			v15.7c2.4,0.7,4.2,2.9,4.2,5.5c0,3.2-2.6,5.8-5.8,5.8c-3.2,0-5.8-2.6-5.8-5.8c0-2.7,1.8-4.9,4.2-5.5V48.8H36
			c-6.9,0-13.1,5.6-13.8,12.5l-1,10.5c-0.7,6.9,4.4,12.5,11.3,12.5h35.1C74.5,84.3,79.6,78.7,78.9,71.8z"/>
		<circle class="st4" cx="38.2" cy="70.2" r="2.7"/>
	</g>
</g>
<path class="st0" d="M70.5,20.9H29.7c-4.7,0-8.5,3.8-8.5,8.5v40.8c0,4.7,3.8,8.5,8.5,8.5h40.8c4.7,0,8.5-3.8,8.5-8.5V29.5
	C79,24.8,75.2,20.9,70.5,20.9z M67.6,54.6H54.8v12.8c0,0.8-0.6,1.4-1.4,1.4h-7c-0.8,0-1.4-0.6-1.4-1.4V54.6H32.1
	c-0.8,0-1.4-0.6-1.4-1.4l0-7c0-0.8,0.6-1.4,1.4-1.4h12.8V31.9c0-0.8,0.6-1.4,1.4-1.4h7c0.8,0,1.4,0.6,1.4,1.4v12.8h12.8
	c0.8,0,1.4,0.6,1.4,1.4l0,7C69.1,54,68.4,54.6,67.6,54.6z"/>
<g class="st1">
	<path class="st2" d="M21.1,39v29.5c0,2.9,2.4,5.3,5.3,5.3H29v-40h-2.6C23.5,33.8,21.1,36.2,21.1,39z"/>
	<path class="st2" d="M73.7,33.8h-2.6v40h2.6c2.9,0,5.3-2.4,5.3-5.3V39C79,36.2,76.6,33.8,73.7,33.8z"/>
	<path class="st2" d="M64.9,29.6c0-2-1.6-3.6-3.6-3.6H38.8c-2,0-3.6,1.6-3.6,3.6v4.2h-3.5v40h36.7v-40h-3.5V29.6z M38.8,29.7
		l22.4-0.1v4.2H38.8L38.8,29.7z M60.6,56.8H53v7.7c0,0.5-0.4,0.8-0.8,0.8h-4.2c-0.5,0-0.8-0.4-0.8-0.8v-7.7h-7.7
		c-0.5,0-0.8-0.4-0.8-0.8l0-4.2c0-0.5,0.4-0.8,0.8-0.8h7.7v-7.7c0-0.5,0.4-0.8,0.8-0.8h4.2c0.5,0,0.8,0.4,0.8,0.8v7.7h7.7
		c0.5,0,0.8,0.4,0.8,0.8l0,4.2C61.5,56.4,61.1,56.8,60.6,56.8z"/>
</g>
<path class="st4" d="M78.8,40.2c0-8.2-6.6-14.8-14.8-14.8c-6.5,0-12.7,6.7-14,6.7c-1.3,0-7.5-6.7-14-6.7c-8.2,0-14.8,6.6-14.8,14.8
	c0,3.6,1.3,6.9,3.5,9.5c0,0.2,24.4,24.7,24.4,24.7c0.5,0.5,1.3,0.5,1.7,0c0,0,24.4-24.6,24.4-24.7C77.5,47.1,78.8,43.8,78.8,40.2z"
	/>
</svg>
