<?xml version="1.0" encoding="utf-8"?>
<!-- Generator: Adobe Illustrator 19.2.1, SVG Export Plug-In . SVG Version: 6.00 Build 0)  -->
<!DOCTYPE svg PUBLIC "-//W3C//DTD SVG 1.1//EN" "http://www.w3.org/Graphics/SVG/1.1/DTD/svg11.dtd">
<svg version="1.1" id="Layer_1" xmlns="http://www.w3.org/2000/svg" xmlns:xlink="http://www.w3.org/1999/xlink" x="0px" y="0px"
	 width="100px" height="100px" viewBox="0 0 100 100" style="enable-background:new 0 0 100 100;" xml:space="preserve">
<style type="text/css">
	.st0{fill:#0063A7;}
</style>
<path class="st0" d="M81.8,42.8c0-5.1-4.2-9.3-9.3-9.3s-9.3,4.2-9.3,9.3c0,4.2,2.9,7.7,6.7,8.9v16c0,10-7.6,14.6-14.6,14.6
	s-14.6-4.5-14.6-14.6v-4.2c8.9-1.1,17.2-7.8,17.2-19.6V19c0-0.2,0-0.3-0.1-0.5c-0.3-3.4-3.1-6.1-6.6-6.1c-3.7,0-6.7,3-6.7,6.7
	s3,6.7,6.7,6.7c0.5,0,1-0.1,1.4-0.2V44c0,10-7.6,14.6-14.6,14.6S23.5,54,23.5,44V25.7c0.5,0.1,0.9,0.2,1.4,0.2c3.7,0,6.7-3,6.7-6.7
	s-3-6.7-6.7-6.7c-3.4,0-6.3,2.6-6.6,6c-0.1,0.2-0.1,0.4-0.1,0.6v24.9c0,6.1,2.2,11.2,6.2,14.9c2.9,2.6,6.8,4.3,10.9,4.8v4.2
	c0,6.1,2.2,11.2,6.2,14.9c3.6,3.2,8.4,5,13.5,5C65,87.6,75,80.8,75,67.8v-16C78.9,50.7,81.8,47.1,81.8,42.8z M72.5,47
	c-2.3,0-4-1.9-4-4c0-2.3,1.9-4,4-4c2.2,0,4,1.9,4,4C76.5,45.1,74.7,47,72.5,47z"/>
</svg>
